[
    {
        "dates": {
            "maximum": "2017-08-14",
            "minimum": "2017-06-30"
        },
        "page": 1,
        "results": [
            {
                "adult": false,
                "backdrop_path": "/vc8bCGjdVp0UbMNLzHnHSLRbBWQ.jpg",
                "genre_ids": [
                    28,
                    12,
                    878
                ],
                "id": 315635,
                "original_language": "en",
                "original_title": "Spider-Man: Homecoming",
                "overview": "Following the events of Captain America: Civil War, Peter Parker, with the help of his mentor Tony Stark, tries to balance his life as an ordinary high school student in Queens, New York City, with fighting crime as his superhero alter ego Spider-Man as a new threat, the Vulture, emerges.",
                "popularity": 93.046462,
                "poster_path": "/c24sv2weTHPsmDa7jEMN0m2P3RT.jpg",
                "release_date": "2017-08-11",
                "title": "Spider-Man: Homecoming",
                "video": false,
                "vote_average": 7.4,
                "vote_count": 2085
            },
            {
                "adult": false,
                "backdrop_path": "/AgRQ9rgBYuXAQuT5umSLYbwJKCM.jpg",
                "genre_ids": [
                    28,
                    12,
                    14,
                    53
                ],
                "id": 282035,
                "original_language": "en",
                "original_title": "The Mummy",
                "overview": "Though safely entombed in a crypt deep beneath the unforgiving desert, an ancient queen whose destiny was unjustly taken from her is awakened in our current day, bringing with her malevolence grown over millennia, and terrors that defy human comprehension.",
                "popularity": 13.223515,
                "poster_path": "/zxkY8byBnCsXodEYpK8tmwEGXBI.jpg",
                "release_date": "2017-07-28",
                "title": "The Mummy",
                "video": false,
                "vote_average": 5.3,
                "vote_count": 1454
            },
            {
                "adult": false,
                "backdrop_path": "/dQ6s3Ud2KoOs3LKw6xgZr1cw7Yq.jpg",
                "genre_ids": [
                    53,
                    28,
                    80
                ],
                "id": 324552,
                "original_language": "en",
                "original_title": "John Wick: Chapter 2",
                "overview": "John Wick is forced out of retirement by a former associate looking to seize control of a shadowy international assassins’ guild. Bound by a blood oath to aid him, Wick travels to Rome and does battle against some of the world’s most dangerous killers.",
                "popularity": 11.62235,
                "poster_path": "/zkXnKIwX5pYorKJp2fjFSfNyKT0.jpg",
                "release_date": "2017-07-07",
                "title": "John Wick: Chapter 2",
                "video": false,
                "vote_average": 6.6,
                "vote_count": 2466
            },
            {
                "adult": false,
                "backdrop_path": "/rND0GSv8X2Zzs7VhyFAs9BCEmYE.jpg",
                "genre_ids": [
                    10751,
                    35,
                    16,
                    12
                ],
                "id": 260514,
                "original_language": "en",
                "original_title": "Cars 3",
                "overview": "Blindsided by a new generation of blazing-fast racers, the legendary Lightning McQueen is suddenly pushed out of the sport he loves. To get back in the game, he will need the help of an eager young race technician with her own plan to win, inspiration from the late Fabulous Hudson Hornet, and a few unexpected turns. Proving that #95 isn't through yet will test the heart of a champion on Piston Cup Racing’s biggest stage!",
                "popularity": 8.92837,
                "poster_path": "/fyy1nDC8wm553FCiBDojkJmKLCs.jpg",
                "release_date": "2017-07-15",
                "title": "Cars 3",
                "video": false,
                "vote_average": 6.3,
                "vote_count": 472
            },
            {
                "adult": false,
                "backdrop_path": "/z55aSCiULLHwHB6koteymt9um1g.jpg",
                "genre_ids": [
                    28,
                    12
                ],
                "id": 431572,
                "original_language": "ja",
                "original_title": "ジョジョの奇妙な冒険 ダイヤモンドは砕けない 第一章",
                "overview": "In a world where people can wield psychic avatars, a family must unite to track down a serial killer.",
                "popularity": 3.239782,
                "poster_path": "/bYiw2DZaM682QffkF4MdKLyWysl.jpg",
                "release_date": "2017-08-04",
                "title": "JoJo's Bizarre Adventure: Diamond Is Unbreakable - Chapter 1",
                "video": false,
                "vote_average": 0,
                "vote_count": 0
            },
            {
                "adult": false,
                "backdrop_path": "/25wRzTFS88jPmhu9rB8teTaEtqH.jpg",
                "genre_ids": [
                    878,
                    28,
                    12
                ],
                "id": 434025,
                "original_language": "ja",
                "original_title": "宇宙刑事ギャバン VS 特捜戦隊デカレンジャー",
                "overview": "Space Sheriff Gavan vs Tokusou Sentai Dekaranger features the return of Yuma Ishigaki from 2012’s Space Sheriff Gavan: The Movie and the 2015 Space Sheriff Next Generation films. The first installment will join the two police themed heroes as they face a massive space crime organization.",
                "popularity": 3.060604,
                "poster_path": "/d60mm0nOrq4xugoFMTUnKOU3nQO.jpg",
                "release_date": "2017-07-19",
                "title": "Space Squad: Space Sheriff Gavan vs. Tokusou Sentai Dekaranger",
                "video": false,
                "vote_average": 10,
                "vote_count": 1
            },
            {
                "adult": false,
                "backdrop_path": "/bRyhWFL2Z9dAAbQo0vcMvmUwmPN.jpg",
                "genre_ids": [
                    12,
                    16
                ],
                "id": 436931,
                "original_language": "ja",
                "original_title": "劇場版ポケットモンスター　キミにきめた！",
                "overview": "This is the story of how Ash and Pikachu first met. At first, Pikachu was disobedient towards Ash, but Ash only wanted to be friends with Pikachu. On the day they set out from Pallet Town, both of them saw a Ho-Oh flying and they made a vow to meet it.",
                "popularity": 3.023852,
                "poster_path": "/cmpOaiRtjnhLNF2iPslMXCOcVJ.jpg",
                "release_date": "2017-07-15",
                "title": "Pokémon The Movie: I Choose You!",
                "video": false,
                "vote_average": 7.6,
                "vote_count": 13
            },
            {
                "adult": false,
                "backdrop_path": null,
                "genre_ids": [
                    18
                ],
                "id": 449132,
                "original_language": "ja",
                "original_title": "君の膵臓をたべたい",
                "overview": "I (Takumi Kitamura) am a high school student. I happen to find a diary by my classmate Sakura Yamauchi (Minami Hamabe) that reveals she is suffering from a pancreatic disease. I spent time with Sakura, but she dies.  12 years later, due to Sakura’s words, I (Shun Oguri) am now a high school teacher at the same school where I graduated from. While I talk with my student, I remember several months I spent with Sakura. Meanwhile, Kyoko (Keiko Kitagawa), who was Sakura’s friend, is soon to marry. Kyoko also recalls the days she spent with me and Sakura.",
                "popularity": 2.573437,
                "poster_path": "/5emCkcATPFCp5SQsI8vUnMkBZZM.jpg",
                "release_date": "2017-07-28",
                "title": "I Want to Eat Your Pancreas",
                "video": false,
                "vote_average": 9,
                "vote_count": 1
            },
            {
                "adult": false,
                "backdrop_path": "/AvfnTVPo0UBcSBnEokAOIHwEmgs.jpg",
                "genre_ids": [
                    878
                ],
                "id": 313943,
                "original_language": "en",
                "original_title": "Revolt",
                "overview": "The story of humankind's last stand against a cataclysmic alien invasion. Set in the war-ravaged African countryside, a U.S. soldier and a French foreign aid worker team up to survive the alien onslaught. Their bond will be tested as they search for refuge across a crumbling world.",
                "popularity": 2.319529,
                "poster_path": "/eM2zipCkAXhp0BZF2noDp7bRFgV.jpg",
                "release_date": "2017-07-01",
                "title": "Revolt",
                "video": false,
                "vote_average": 6,
                "vote_count": 7
            },
            {
                "adult": false,
                "backdrop_path": "/1bjoIR8Yb3qDrflszNWlz9uo2JF.jpg",
                "genre_ids": [
                    28,
                    18,
                    27,
                    53
                ],
                "id": 433945,
                "original_language": "ja",
                "original_title": "東京喰種 トーキョーグール",
                "overview": "Ken Kaneki (Masataka Kubota) is a university student. He becomes injured by Rize, a human eating ghoul. Ken is saved from the ghoul when a steel frame falls on Rize. They are both sent to the hospital. Ken receives an organ transplant from Rize and becomes a half ghoul.",
                "popularity": 1.807425,
                "poster_path": "/53Tjv28KGP7ZZh7XqTer90t6tMZ.jpg",
                "release_date": "2017-07-29",
                "title": "Tokyo Ghoul",
                "video": false,
                "vote_average": 0,
                "vote_count": 0
            },
            {
                "adult": false,
                "backdrop_path": "/enCz0eEPiXboXww9pFEcOJ67cPi.jpg",
                "genre_ids": [],
                "id": 447163,
                "original_language": "ja",
                "original_title": "心が叫びたがってるんだ。",
                "overview": "Jun is a girl whose words have been sealed away. She was once a very happy girl, but because of a certain thing she said when she was very young, her family was torn apart. One day, the egg fairy appeared in front of her and sealed away her ability to talk in order to stop her from hurting anybody else. Since this traumatic experience, Jun lives in the shadows away from the limelight. But, one day, she is nominated to become an executive member of the \"community outreach council.\" On top of that, Jun is also appointed to play the main lead in their musical...",
                "popularity": 1.702158,
                "poster_path": "/lYriVXYWGGsh2wcQFWfQY2DbZEj.jpg",
                "release_date": "2017-07-22",
                "title": "The Anthem of the Heart",
                "video": false,
                "vote_average": 0,
                "vote_count": 0
            },
            {
                "adult": false,
                "backdrop_path": null,
                "genre_ids": [
                    18,
                    10749
                ],
                "id": 431988,
                "original_language": "ja",
                "original_title": "Hidamari ga Kikoeru",
                "overview": "Kohei has hearing problems and is a loner, most of the time trying to avoid contact with people because he's misunderstood. One day, by chance, he meets the outgoing Taichi who will be his note taker in exchange for meals and between them friendship will grow and then develop into romantic feelings.",
                "popularity": 1.679008,
                "poster_path": null,
                "release_date": "2017-07-01",
                "title": "I Hear the Sunspot",
                "video": false,
                "vote_average": 0,
                "vote_count": 0
            },
            {
                "adult": false,
                "backdrop_path": "/cweMawV0vqOwif9NCSoSMEeCr8i.jpg",
                "genre_ids": [
                    18
                ],
                "id": 456761,
                "original_language": "ja",
                "original_title": "海辺の生と死",
                "overview": "Set in 1945 at the end of World War II.  Saku (Kento Nagayama) arrives on Kakeromajima as the head of navy special forces. He is admired by the children on the island and he is interested in learning the island song as well as drinking with his men. Toe (Hikari Mitsushima) is an elementary school teacher on Kakeromajima and she has feelings for Saku.",
                "popularity": 1.633353,
                "poster_path": "/ovLW2UPmPgDBD8MWLSeLn4nfMmU.jpg",
                "release_date": "2017-07-29",
                "title": "Life and Death on the Shore",
                "video": false,
                "vote_average": 0,
                "vote_count": 0
            },
            {
                "adult": false,
                "backdrop_path": null,
                "genre_ids": [
                    16
                ],
                "id": 461761,
                "original_language": "ja",
                "original_title": "結城友奈は勇者である -鷲尾須美の章- 第3章 「やくそく」",
                "overview": "No overview found.",
                "popularity": 1.597465,
                "poster_path": "/hiex6OrnpLqCgH2k0VEPneieNSR.jpg",
                "release_date": "2017-07-08",
                "title": "Yuki Yuna Is A Hero: Washio Sumi Chapter 3 - Promise",
                "video": false,
                "vote_average": 0,
                "vote_count": 0
            },
            {
                "adult": false,
                "backdrop_path": null,
                "genre_ids": [
                    16
                ],
                "id": 445030,
                "original_language": "ja",
                "original_title": "ノーゲーム・ノーライフ ゼロ",
                "overview": "The official Twitter account for the No Game No Life series announced that a movie adaptation of the light novel was revealed during the MF Bunko J Summer School Festival 2016 event. The movie will adapt sixth volume of the light novel.",
                "popularity": 1.584456,
                "poster_path": "/dIUhR5aocsI6liiQaQLYk65XZQu.jpg",
                "release_date": "2017-07-15",
                "title": "No Game No Life: Zero",
                "video": false,
                "vote_average": 5.2,
                "vote_count": 3
            },
            {
                "adult": false,
                "backdrop_path": null,
                "genre_ids": [
                    14,
                    16
                ],
                "id": 432057,
                "original_language": "ja",
                "original_title": "魔法少女リリカルなのは Reflection",
                "overview": "It will have a brand new original story.",
                "popularity": 1.577738,
                "poster_path": "/ifnaCaG37qeygihwKNnykWluAQW.jpg",
                "release_date": "2017-07-22",
                "title": "Magical Girl Lyrical Nanoha Reflection",
                "video": false,
                "vote_average": 0,
                "vote_count": 0
            },
            {
                "adult": false,
                "backdrop_path": null,
                "genre_ids": [
                    16,
                    35
                ],
                "id": 440362,
                "original_language": "ja",
                "original_title": "劇場版 生徒会役員共",
                "overview": "Ousai Academy was originally an all-girls high school. Due to the declining birth rates in recent years, it was converted into a co-ed school. The first year male students would find themselves surrounded by girls and unfortunately, Tsuda Takatoshi is one of them. What's worse, he gets scolded on his first day by the student council president Shino Amakusa, which did not give a good first impression of him. Tsuda also meets the other student council members while getting scolded, and in the end, he gets late for class. As an apology for ruining his morning, Shino lets him join the student council for various of \"reasons\" and he accepts it, or rather, he's forced to accept. Thus begins his days as Tsuda soon realizes that he's the only normal student in Ousai Academy...",
                "popularity": 1.576794,
                "poster_path": "/qIBWLHJLkIxXJwAnQpciElUBeV1.jpg",
                "release_date": "2017-07-21",
                "title": "Seitokai Yakuindomo Movie",
                "video": false,
                "vote_average": 0,
                "vote_count": 0
            },
            {
                "adult": false,
                "backdrop_path": "/svGVTDs4M4M4yqGtf75EzUntNBN.jpg",
                "genre_ids": [
                    28,
                    12,
                    35,
                    878
                ],
                "id": 432985,
                "original_language": "ja",
                "original_title": "銀魂",
                "overview": "In an era where aliens have invaded and taken over feudal Tokyo, a young samurai finds work however he can.",
                "popularity": 1.540125,
                "poster_path": "/kZwyyazISEgJXVkhre00Kj7pvlf.jpg",
                "release_date": "2017-07-14",
                "title": "Gintama",
                "video": false,
                "vote_average": 6.3,
                "vote_count": 2
            },
            {
                "adult": false,
                "backdrop_path": null,
                "genre_ids": [
                    18
                ],
                "id": 467209,
                "original_language": "ja",
                "original_title": "彼女の人生は間違いじゃない",
                "overview": "Based on the novel \"Kanojo no Jinsei wa Machigai ja Nai\" (literal translation: Her life is not at fault) by Director Hiroki, it is a powerful story of survivors, who are all trying to find their own silver linings in life.",
                "popularity": 1.362612,
                "poster_path": "/h4VDDbYcsGzWJerm0dHYuPNBjee.jpg",
                "release_date": "2017-07-15",
                "title": "Side Job",
                "video": false,
                "vote_average": 0,
                "vote_count": 0
            },
            {
                "adult": false,
                "backdrop_path": "/6RYiI9zEhlTrmpm3s2WueFPGvfI.jpg",
                "genre_ids": [
                    12,
                    16
                ],
                "id": 430447,
                "original_language": "ja",
                "original_title": "メアリと魔女の花",
                "overview": "Mary and the Witch's Flower is an upcoming Japanese anime fantasy film directed by Hiromasa Yonebayashi and produced by Studio Ponoc, based on The Little Broomstick by Mary Stewart. This is Studio Ponoc's first feature film. The film tells a story of a young girl named Mary who discovers that she has a mysterious power to become a witch which lasts for one night only.",
                "popularity": 1.327117,
                "poster_path": "/tp04p44YQMUrgEnxIK8Sad8A2CI.jpg",
                "release_date": "2017-07-08",
                "title": "Mary and the Witch's Flower",
                "video": false,
                "vote_average": 0,
                "vote_count": 0
            }
        ],
        "total_pages": 2,
        "total_results": 30
    },
    {
        "dates": {
            "maximum": "2017-08-14",
            "minimum": "2017-06-30"
        },
        "page": 2,
        "results": [
            {
                "adult": false,
                "backdrop_path": null,
                "genre_ids": [
                    18
                ],
                "id": 466384,
                "original_language": "en",
                "original_title": "Hello, Goodbye",
                "overview": "Hazuki and Aoi are classmates but their relationship outside class is fraught, and outside school non-existent. But when both girls are drawn to helping an elderly woman, they're forced to interact, confronting their differences and similarities as well as their deepest secrets.",
                "popularity": 1.322946,
                "poster_path": null,
                "release_date": "2017-07-15",
                "title": "Hello, Goodbye",
                "video": false,
                "vote_average": 0,
                "vote_count": 0
            },
            {
                "adult": false,
                "backdrop_path": null,
                "genre_ids": [
                    35,
                    18
                ],
                "id": 442842,
                "original_language": "ja",
                "original_title": "獣道",
                "overview": "Born in a small town in Japan, a young girl named Ai is sent to a cult commune by her religious maniac mother and lives there for seven long years. After the cult is exposed by the police, Ai starts a new stage of life, going to a normal school for the first time, but she can’t find her place to fit in there. Ai drops out from the school and society, spending her life living with a rock-bottom delinquent family full of gangsters and call girls. In a strange twist of fate she finds herself back in a new and normal life, living with a middle-class family, but her troubled life continues to follow her into more deep and seedy paths.",
                "popularity": 1.319605,
                "poster_path": "/oZEy9TGfLKKrLS5CbmJz40pnVyd.jpg",
                "release_date": "2017-07-15",
                "title": "Love And Other Cults",
                "video": false,
                "vote_average": 0,
                "vote_count": 0
            },
            {
                "adult": false,
                "backdrop_path": null,
                "genre_ids": [
                    28
                ],
                "id": 461211,
                "original_language": "ja",
                "original_title": "忍びの国",
                "overview": "Raised suckling poison arrows among the sparring Iga ninja factions, Mumon (Satoshi Ohno, of idol group Arashi) is a carefree 16th-century mercenary. When the ninja council makes a power play to defeat the young Nobukatsu Oda struggling to step into his father’s warlord shoes as they expand rule across the country, Mumon jumps into the fray to satisfy his new bride Okuni’s (Satomi Ishihara of Shin Godzilla, Attack on Titan) demand that he make good on his promises of wealth. Yet Mumon soon finds what is worth fighting for beyond money or nation. A longtime JAPAN CUTS favorite known for his offbeat dramas, Yoshihiro Nakamura (Fish Story, Golden Slumber) takes on the jidaigeki epic with his signature sense of play featuring a jazzy soundtrack and fantastical ninja tricks. -JAPAN CUTS: Festival of New Japanese Film",
                "popularity": 1.316982,
                "poster_path": "/8CvsL7KPaO2JbTKXNwYXhyFVNHP.jpg",
                "release_date": "2017-07-01",
                "title": "MUMON: The Land of Stealth",
                "video": false,
                "vote_average": 0,
                "vote_count": 0
            },
            {
                "adult": false,
                "backdrop_path": null,
                "genre_ids": [
                    16
                ],
                "id": 460396,
                "original_language": "ja",
                "original_title": "劇場版 Free!-Timeless Medley- 約束",
                "overview": "Second part of Free!: Timeless Medley",
                "popularity": 1.296021,
                "poster_path": "/nhjNiiCnt47SMdHhkVV4DfgRPJR.jpg",
                "release_date": "2017-07-01",
                "title": "Free!: Timeless Medley - Yakusoku",
                "video": false,
                "vote_average": 0,
                "vote_count": 0
            },
            {
                "adult": false,
                "backdrop_path": "/8ziUgU09PJ7K1F432mJPlIitiBF.jpg",
                "genre_ids": [],
                "id": 461215,
                "original_language": "ja",
                "original_title": "アリーキャット",
                "overview": "A depressed ex-boxer (Yosuke Kubozuka) self-medicating for the injuries that ended his career finds a stray cat that brightens his day, but she is snatched up by a comical grungy mechanic (Kenji Furuya). Calling each other by the competing names they gave the cat, Maru and Lily, the odd pair is abruptly sucked into a political conspiracy with Saeko (Yui Ichikawa) and her son at the center. Witnessing another injustice in which the economic and social elite prey on the vulnerable, the two strays set off on the road to redemption, or at least peaceful cat ownership. (Fun fact: in addition to acting together in Alley Cat, Yosuke Kubozuka and Kenji “KJ” Furuya released the single “Soul Ship” in 2017. Kubozuka performs as Manji Line and Furuya in the band Dragon Ash.) -JAPAN CUTS: Festival of New Japanese Film",
                "popularity": 1.287243,
                "poster_path": "/w3P68nCVTlEOPCKddYNjRIp8pLC.jpg",
                "release_date": "2017-07-15",
                "title": "Alley Cat",
                "video": false,
                "vote_average": 0,
                "vote_count": 0
            },
            {
                "adult": false,
                "backdrop_path": null,
                "genre_ids": [
                    35
                ],
                "id": 463667,
                "original_language": "en",
                "original_title": "Luntiang Paraiso",
                "overview": "Benjo starts a carnal relationship with a tree. His passion turns to anger when he sees his plant with another man.",
                "popularity": 1.285054,
                "poster_path": "/9IF7n7YkDm0vxeR92z7o9El5CQU.jpg",
                "release_date": "2017-07-01",
                "title": "Luntiang Paraiso",
                "video": false,
                "vote_average": 0,
                "vote_count": 0
            },
            {
                "adult": false,
                "backdrop_path": "/pUrZukm4chtpldNvvKiezurqq5f.jpg",
                "genre_ids": [],
                "id": 460559,
                "original_language": "ja",
                "original_title": "世界は今日から君のもの",
                "overview": "Mami rarely leaves home since she dropped out from middle school. She has been escaping reality by immersing herself in copying her favorite manga and illustrations in her room full of books and comics. Her father, Eisuke, worries a lot about her ever since he divorced with her mother, Mika.",
                "popularity": 1.275915,
                "poster_path": "/jNGArYOANjBeblsZAqbA0fUfvp.jpg",
                "release_date": "2017-07-15",
                "title": "Her Sketchbook",
                "video": false,
                "vote_average": 0,
                "vote_count": 0
            },
            {
                "adult": false,
                "backdrop_path": null,
                "genre_ids": [
                    12,
                    16,
                    14
                ],
                "id": 468527,
                "original_language": "en",
                "original_title": "Soreike! Anpanman: Buruburu no takarasagashi daibouken!",
                "overview": "Anpanman and friends help fraidy lion Buruburu locate some treasure.",
                "popularity": 1.229338,
                "poster_path": null,
                "release_date": "2017-07-01",
                "title": "Soreike! Anpanman: Buruburu no takarasagashi daibouken!",
                "video": false,
                "vote_average": 0,
                "vote_count": 0
            },
            {
                "adult": false,
                "backdrop_path": null,
                "genre_ids": [
                    18
                ],
                "id": 469282,
                "original_language": "ja",
                "original_title": "My Cactus",
                "overview": "My Cactus is a film from writer/director Koto Nagata that tells the story of unrequited love between its two main characters.",
                "popularity": 1.212503,
                "poster_path": null,
                "release_date": "2017-07-02",
                "title": "My Cactus",
                "video": false,
                "vote_average": 0,
                "vote_count": 0
            },
            {
                "adult": false,
                "backdrop_path": null,
                "genre_ids": [
                    35,
                    10749
                ],
                "id": 465365,
                "original_language": "en",
                "original_title": "兄に愛されすぎて困ってます",
                "overview": "Setoka Tachibana is a female high school student who has confessed her feelings to other boys 12 times, but has been rebuffed each time. Her older brother Haruka Tachibana cares for his younger sister deeply, but he keeps secret from her that they are not blood related. One day, Setoka's first love Takane Serikawa appears after many years and approaches her.",
                "popularity": 1.106375,
                "poster_path": "/vIp4xvFta6efRghhJzSJRpu657.jpg",
                "release_date": "2017-06-30",
                "title": "I Have Difficulty to Be Loved Too Much by Older Brother",
                "video": false,
                "vote_average": 0,
                "vote_count": 0
            }
        ],
        "total_pages": 2,
        "total_results": 30
    }
]